
=============================================================

NuDesign MODULE Implementation Test Report

=============================================================

 version : 1.0

 Copyright 2003-2005 NuDesign Team Inc.

 No part of the software that produced this report may be
 copied, modified, distributed or sold without the express
 written permission of NuDesign Team Inc.

=============================================================

Test date and time  : 12/13/2011 12:07:11 PM

Test agent address  : 192.168.0.122

Test agent port     : 161

Test SNMP version   : 2

Read Authentication : public

Write Authentication: 

Test run on host at : 192.168.0.154

=============================================================

